Capítulo 15 Manipulação de dados | Introdução ao R e à Simulação Estatística
…
15.2.1 Selecionar colunas com select()

A select() escolhe colunas pelo nome, sem aspas:

select(sw, name)                       # uma coluna
## # A tibble: 87 × 1
##    name              
##    <chr>             
##  1 Luke Skywalker    
##  2 C-3PO             
##  3 R2-D2             
##  4 Darth Vader       
##  5 Leia Organa       
##  6 Owen Lars         
##  7 Beru Whitesun Lars
##  8 R5-D4             
##  9 Biggs Darklighter 
## 10 Obi-Wan Kenobi    
## # ℹ 77 more rows
select(sw, name, mass, hair_color)     # várias colunas
## # A tibble: 87 × 3
##    name                mass hair_color   
##    <chr>              <dbl> <chr>        
##  1 Luke Skywalker        77 blond        
##  2 C-3PO                 75 <NA>         
##  3 R2-D2                 32 <NA>         
##  4 Darth Vader          136 none         
##  5 Leia Organa           49 brown        
##  6 Owen Lars            120 brown, grey  
##  7 Beru Whitesun Lars    75 brown        
##  8 R5-D4                 32 <NA>         
##  9 Biggs Darklighter     84 black        
## 10 Obi-Wan Kenobi        77 auburn, white
## # ℹ 77 more rows
select(sw, name:hair_color)            # um intervalo de colunas
## # A tibble: 87 × 4
##    name               height  mass hair_color   
##    <chr>               <int> <dbl> <chr>        
##  1 Luke Skywalker        172    77 blond        
##  2 C-3PO                 167    75 <NA>         
##  3 R2-D2                  96    32 <NA>         
##  4 Darth Vader           202   136 none         
##  5 Leia Organa           150    49 brown        
##  6 Owen Lars             178   120 brown, grey  
##  7 Beru Whitesun Lars    165    75 brown        
##  8 R5-D4                  97    32 <NA>         
##  9 Biggs Darklighter     183    84 black        
## 10 Obi-Wan Kenobi        182    77 auburn, white
## # ℹ 77 more rows

Há funções auxiliares muito úteis: starts_with(), ends_with() e contains()
selecionam colunas pelo nome. Um sinal - remove colunas:

select(sw, ends_with("color"))         # colunas terminadas em "color"
## # A tibble: 87 × 3
##    hair_color    skin_color  eye_color
##    <chr>         <chr>       <chr>    
##  1 blond         fair        blue     
##  2 <NA>          gold        yellow   
##  3 <NA>          white, blue red      
##  4 none          white       yellow   
##  5 brown         light       brown    
##  6 brown, grey   light       blue     
##  7 brown         light       blue     
##  8 <NA>          white, red  red      
##  9 black         light       brown    
## 10 auburn, white fair        blue-gray
## # ℹ 77 more rows
select(sw, -ends_with("color"))        # todas menos essas
## # A tibble: 87 × 11
##    name               height  mass birth_year sex    gender   homeworld species films vehicles starships
##    <chr>               <int> <dbl>      <dbl> <chr>  <chr>    <chr>     <chr>   <lis> <list>   <list>   
##  1 Luke Skywalker        172    77       19   male   masculi… Tatooine  Human   <chr> <chr>    <chr [2]>
##  2 C-3PO                 167    75      112   none   masculi… Tatooine  Droid   <chr> <chr>    <chr [0]>
##  3 R2-D2                  96    32       33   none   masculi… Naboo     Droid   <chr> <chr>    <chr [0]>
##  4 Darth Vader           202   136       41.9 male   masculi… Tatooine  Human   <chr> <chr>    <chr [1]>
##  5 Leia Organa           150    49       19   female feminine Alderaan  Human   <chr> <chr>    <chr [0]>
##  6 Owen Lars             178   120       52   male   masculi… Tatooine  Human   <chr> <chr>    <chr [0]>
##  7 Beru Whitesun Lars    165    75       47   female feminine Tatooine  Human   <chr> <chr>    <chr [0]>
##  8 R5-D4                  97    32       NA   none   masculi… Tatooine  Droid   <chr> <chr>    <chr [0]>
##  9 Biggs Darklighter     183    84       24   male   masculi… Tatooine  Human   <chr> <chr>    <chr [1]>
## 10 Obi-Wan Kenobi        182    77       57   male   masculi… Stewjon   Human   <chr> <chr>    <chr [5]>
## # ℹ 77 more rows
…
2. Crie uma tabela sw_simples apenas com as colunas name, gender e films.

3. Selecione as colunas hair_color, skin_color e eye_color usando a função
auxiliar contains().

4. Escreva todas as formas diferentes que conseguir de devolver a base sw sem
as colunas hair_color, skin_color e eye_color.

15.2.2 Ordenar com arrange()

A arrange() ordena as linhas por uma ou mais colunas; desc() inverte a ordem:

arrange(sw, mass)                        # massa crescente
## # A tibble: 87 × 14
##    name     height  mass hair_color skin_color eye_color birth_year sex   gender homeworld species films
##    <chr>     <int> <dbl> <chr>      <chr>      <chr>          <dbl> <chr> <chr>  <chr>     <chr>   <lis>
##  1 Ratts T…     79    15 none       grey, blue unknown           NA male  mascu… Aleen Mi… Aleena  <chr>
##  2 Yoda         66    17 white      green      brown            896 male  mascu… <NA>      Yoda's… <chr>
##  3 Wicket …     88    20 brown      brown      brown              8 male  mascu… Endor     Ewok    <chr>
##  4 R2-D2        96    32 <NA>       white, bl… red               33 none  mascu… Naboo     Droid   <chr>
##  5 R5-D4        97    32 <NA>       white, red red               NA none  mascu… Tatooine  Droid   <chr>
##  6 Sebulba     112    40 none       grey, red  orange            NA male  mascu… Malastare Dug     <chr>
##  7 Padmé A…    185    45 brown      light      brown             46 fema… femin… Naboo     Human   <chr>
##  8 Dud Bolt     94    45 none       blue, grey yellow            NA male  mascu… Vulpter   Vulpte… <chr>
##  9 Wat Tam…    193    48 none       green, gr… unknown           NA male  mascu… Skako     Skakoan <chr>
## 10 Sly Moo…    178    48 none       pale       white             NA <NA>  <NA>   Umbara    <NA>    <chr>
## # ℹ 77 more rows
## # ℹ 2 more variables: vehicles <list>, starships <list>
arrange(sw, desc(mass))                  # massa decrescente
## # A tibble: 87 × 14
##    name     height  mass hair_color skin_color eye_color birth_year sex   gender homeworld species films
##    <chr>     <int> <dbl> <chr>      <chr>      <chr>          <dbl> <chr> <chr>  <chr>     <chr>   <lis>
##  1 Jabba D…    175  1358 <NA>       green-tan… orange         600   herm… mascu… Nal Hutta Hutt    <chr>
##  2 Grievous    216   159 none       brown, wh… green, y…       NA   male  mascu… Kalee     Kaleesh <chr>
##  3 IG-88       200   140 none       metal      red             15   none  mascu… <NA>      Droid   <chr>
##  4 Darth V…    202   136 none       white      yellow          41.9 male  mascu… Tatooine  Human   <chr>
##  5 Tarfful     234   136 brown      brown      blue            NA   male  mascu… Kashyyyk  Wookiee <chr>
##  6 Owen La…    178   120 brown, gr… light      blue            52   male  mascu… Tatooine  Human   <chr>
##  7 Bossk       190   113 none       green      red             53   male  mascu… Trandosha Trando… <chr>
##  8 Chewbac…    228   112 brown      unknown    blue           200   male  mascu… Kashyyyk  Wookiee <chr>
##  9 Jek Ton…    180   110 brown      fair       blue            NA   <NA>  <NA>   Bestine … <NA>    <chr>
## 10 Dexter …    198   102 none       brown      yellow          NA   male  mascu… Ojom      Besali… <chr>
## # ℹ 77 more rows
## # ℹ 2 more variables: vehicles <list>, starships <list>
arrange(sw, desc(height), desc(mass))    # por altura e, em empate, por massa
## # A tibble: 87 × 14
##    name     height  mass hair_color skin_color eye_color birth_year sex   gender homeworld species films
##    <chr>     <int> <dbl> <chr>      <chr>      <chr>          <dbl> <chr> <chr>  <chr>     <chr>   <lis>
##  1 Yarael …    264    NA none       white      yellow          NA   male  mascu… Quermia   Quermi… <chr>
##  2 Tarfful     234   136 brown      brown      blue            NA   male  mascu… Kashyyyk  Wookiee <chr>
##  3 Lama Su     229    88 none       grey       black           NA   male  mascu… Kamino    Kamino… <chr>
##  4 Chewbac…    228   112 brown      unknown    blue           200   male  mascu… Kashyyyk  Wookiee <chr>
##  5 Roos Ta…    224    82 none       grey       orange          NA   male  mascu… Naboo     Gungan  <chr>
##  6 Grievous    216   159 none       brown, wh… green, y…       NA   male  mascu… Kalee     Kaleesh <chr>
##  7 Taun We     213    NA none       grey       black           NA   fema… femin… Kamino    Kamino… <chr>
##  8 Tion Me…    206    80 none       grey       black           NA   male  mascu… Utapau    Pau'an  <chr>
##  9 Rugor N…    206    NA none       green      orange          NA   male  mascu… Naboo     Gungan  <chr>
## 10 Darth V…    202   136 none       white      yellow          41.9 male  mascu… Tatooine  Human   <chr>
## # ℹ 77 more rows
## # ℹ 2 more variables: vehicles <list>, starships <list>
15.2.2.1 Exercícios

1. Ordene sw por mass (crescente) e, em empate, por birth_year
(decrescente). Guarde em sw_ordenados.

2. Selecione as colunas name e birth_year e ordene por birth_year
decrescente. Faça-o de três formas: com funções aninhadas, com um objeto intermédio e
com o pipe.

15.2.3 Filtrar linhas com filter()

A filter() seleciona linhas que satisfazem uma ou mais condições lógicas:

sw %>% filter(height > 170)                       # uma condição
## # A tibble: 55 × 14
##    name     height  mass hair_color skin_color eye_color birth_year sex   gender homeworld species films
##    <chr>     <int> <dbl> <chr>      <chr>      <chr>          <dbl> <chr> <chr>  <chr>     <chr>   <lis>
##  1 Luke Sk…    172    77 blond      fair       blue            19   male  mascu… Tatooine  Human   <chr>
##  2 Darth V…    202   136 none       white      yellow          41.9 male  mascu… Tatooine  Human   <chr>
##  3 Owen La…    178   120 brown, gr… light      blue            52   male  mascu… Tatooine  Human   <chr>
##  4 Biggs D…    183    84 black      light      brown           24   male  mascu… Tatooine  Human   <chr>
##  5 Obi-Wan…    182    77 auburn, w… fair       blue-gray       57   male  mascu… Stewjon   Human   <chr>
##  6 Anakin …    188    84 blond      fair       blue            41.9 male  mascu… Tatooine  Human   <chr>
##  7 Wilhuff…    180    NA auburn, g… fair       blue            64   male  mascu… Eriadu    Human   <chr>
##  8 Chewbac…    228   112 brown      unknown    blue           200   male  mascu… Kashyyyk  Wookiee <chr>
##  9 Han Solo    180    80 brown      fair       brown           29   male  mascu… Corellia  Human   <chr>
## 10 Greedo      173    74 <NA>       green      black           44   male  mascu… Rodia     Rodian  <chr>
## # ℹ 45 more rows
## # ℹ 2 more variables: vehicles <list>, starships <list>
sw %>% filter(height > 170) %>% select(name, height)
## # A tibble: 55 × 2
##    name              height
##    <chr>              <int>
##  1 Luke Skywalker       172
##  2 Darth Vader          202
##  3 Owen Lars            178
##  4 Biggs Darklighter    183
##  5 Obi-Wan Kenobi       182
##  6 Anakin Skywalker     188
##  7 Wilhuff Tarkin       180
##  8 Chewbacca            228
##  9 Han Solo             180
## 10 Greedo               173
## # ℹ 45 more rows
sw %>% filter(height > 170, mass > 80)            # duas condições (E lógico)
## # A tibble: 21 × 14
##    name     height  mass hair_color skin_color eye_color birth_year sex   gender homeworld species films
##    <chr>     <int> <dbl> <chr>      <chr>      <chr>          <dbl> <chr> <chr>  <chr>     <chr>   <lis>
##  1 Darth V…    202   136 none       white      yellow          41.9 male  mascu… Tatooine  Human   <chr>
##  2 Owen La…    178   120 brown, gr… light      blue            52   male  mascu… Tatooine  Human   <chr>
##  3 Biggs D…    183    84 black      light      brown           24   male  mascu… Tatooine  Human   <chr>
##  4 Anakin …    188    84 blond      fair       blue            41.9 male  mascu… Tatooine  Human   <chr>
##  5 Chewbac…    228   112 brown      unknown    blue           200   male  mascu… Kashyyyk  Wookiee <chr>
##  6 Jabba D…    175  1358 <NA>       green-tan… orange         600   herm… mascu… Nal Hutta Hutt    <chr>
##  7 Jek Ton…    180   110 brown      fair       blue            NA   <NA>  <NA>   Bestine … <NA>    <chr>
##  8 IG-88       200   140 none       metal      red             15   none  mascu… <NA>      Droid   <chr>
##  9 Bossk       190   113 none       green      red             53   male  mascu… Trandosha Trando… <chr>
## 10 Ackbar      180    83 none       brown mot… orange          41   male  mascu… Mon Cala  Mon Ca… <chr>
## # ℹ 11 more rows
## # ℹ 2 more variables: vehicles <list>, starships <list>

Para variáveis categóricas, comparamos com == ou testamos a pertença a um conjunto
com %in%:

sw %>% filter(hair_color == "black" | hair_color == "brown")
## # A tibble: 31 × 14
##    name     height  mass hair_color skin_color eye_color birth_year sex   gender homeworld species films
##    <chr>     <int> <dbl> <chr>      <chr>      <chr>          <dbl> <chr> <chr>  <chr>     <chr>   <lis>
##  1 Leia Or…    150  49   brown      light      brown           19   fema… femin… Alderaan  Human   <chr>
##  2 Beru Wh…    165  75   brown      light      blue            47   fema… femin… Tatooine  Human   <chr>
##  3 Biggs D…    183  84   black      light      brown           24   male  mascu… Tatooine  Human   <chr>
##  4 Chewbac…    228 112   brown      unknown    blue           200   male  mascu… Kashyyyk  Wookiee <chr>
##  5 Han Solo    180  80   brown      fair       brown           29   male  mascu… Corellia  Human   <chr>
##  6 Wedge A…    170  77   brown      fair       hazel           21   male  mascu… Corellia  Human   <chr>
##  7 Jek Ton…    180 110   brown      fair       blue            NA   <NA>  <NA>   Bestine … <NA>    <chr>
##  8 Boba Fe…    183  78.2 black      fair       brown           31.5 male  mascu… Kamino    Human   <chr>
##  9 Lando C…    177  79   black      dark       brown           31   male  mascu… Socorro   Human   <chr>
## 10 Arvel C…     NA  NA   brown      fair       brown           NA   male  mascu… <NA>      Human   <chr>
## # ℹ 21 more rows
## # ℹ 2 more variables: vehicles <list>, starships <list>
sw %>% filter(hair_color %in% c("black", "brown"))   # forma equivalente, mais curta
## # A tibble: 31 × 14
##    name     height  mass hair_color skin_color eye_color birth_year sex   gender homeworld species films
##    <chr>     <int> <dbl> <chr>      <chr>      <chr>          <dbl> <chr> <chr>  <chr>     <chr>   <lis>
##  1 Leia Or…    150  49   brown      light      brown           19   fema… femin… Alderaan  Human   <chr>
##  2 Beru Wh…    165  75   brown      light      blue            47   fema… femin… Tatooine  Human   <chr>
##  3 Biggs D…    183  84   black      light      brown           24   male  mascu… Tatooine  Human   <chr>
##  4 Chewbac…    228 112   brown      unknown    blue           200   male  mascu… Kashyyyk  Wookiee <chr>
##  5 Han Solo    180  80   brown      fair       brown           29   male  mascu… Corellia  Human   <chr>
##  6 Wedge A…    170  77   brown      fair       hazel           21   male  mascu… Corellia  Human   <chr>
##  7 Jek Ton…    180 110   brown      fair       blue            NA   <NA>  <NA>   Bestine … <NA>    <chr>
##  8 Boba Fe…    183  78.2 black      fair       brown           31.5 male  mascu… Kamino    Human   <chr>
##  9 Lando C…    177  79   black      dark       brown           31   male  mascu… Socorro   Human   <chr>
## 10 Arvel C…     NA  NA   brown      fair       brown           NA   male  mascu… <NA>      Human   <chr>
## # ℹ 21 more rows
## # ℹ 2 more variables: vehicles <list>, starships <list>
…
personagens com mais de 100 kg, ordenadas por altura decrescente, mostrando só
name, mass e height;

personagens da espécie "Human" ou "Droid" com mais de 170 cm;

personagens sem informação de altura e de massa (NA em ambas).

15.2.4 Criar e modificar colunas com mutate()

A mutate() cria colunas novas ou altera colunas existentes. Se o nome já existir, a
coluna é substituída; se for novo, a coluna é acrescentada no fim. Por exemplo, para
converter a altura de centímetros para metros:

sw %>% mutate(height = height / 100)          # substitui a coluna existente
## # A tibble: 87 × 14
##    name     height  mass hair_color skin_color eye_color birth_year sex   gender homeworld species films
##    <chr>     <dbl> <dbl> <chr>      <chr>      <chr>          <dbl> <chr> <chr>  <chr>     <chr>   <lis>
##  1 Luke Sk…   1.72    77 blond      fair       blue            19   male  mascu… Tatooine  Human   <chr>
##  2 C-3PO      1.67    75 <NA>       gold       yellow         112   none  mascu… Tatooine  Droid   <chr>
##  3 R2-D2      0.96    32 <NA>       white, bl… red             33   none  mascu… Naboo     Droid   <chr>
##  4 Darth V…   2.02   136 none       white      yellow          41.9 male  mascu… Tatooine  Human   <chr>
##  5 Leia Or…   1.5     49 brown      light      brown           19   fema… femin… Alderaan  Human   <chr>
##  6 Owen La…   1.78   120 brown, gr… light      blue            52   male  mascu… Tatooine  Human   <chr>
##  7 Beru Wh…   1.65    75 brown      light      blue            47   fema… femin… Tatooine  Human   <chr>
##  8 R5-D4      0.97    32 <NA>       white, red red             NA   none  mascu… Tatooine  Droid   <chr>
##  9 Biggs D…   1.83    84 black      light      brown           24   male  mascu… Tatooine  Human   <chr>
## 10 Obi-Wan…   1.82    77 auburn, w… fair       blue-gray       57   male  mascu… Stewjon   Human   <chr>
## # ℹ 77 more rows
## # ℹ 2 more variables: vehicles <list>, starships <list>
sw %>% mutate(height_meters = height / 100)   # cria uma nova coluna
## # A tibble: 87 × 15
##    name     height  mass hair_color skin_color eye_color birth_year sex   gender homeworld species films
##    <chr>     <int> <dbl> <chr>      <chr>      <chr>          <dbl> <chr> <chr>  <chr>     <chr>   <lis>
##  1 Luke Sk…    172    77 blond      fair       blue            19   male  mascu… Tatooine  Human   <chr>
##  2 C-3PO       167    75 <NA>       gold       yellow         112   none  mascu… Tatooine  Droid   <chr>
##  3 R2-D2        96    32 <NA>       white, bl… red             33   none  mascu… Naboo     Droid   <chr>
##  4 Darth V…    202   136 none       white      yellow          41.9 male  mascu… Tatooine  Human   <chr>
##  5 Leia Or…    150    49 brown      light      brown           19   fema… femin… Alderaan  Human   <chr>
##  6 Owen La…    178   120 brown, gr… light      blue            52   male  mascu… Tatooine  Human   <chr>
##  7 Beru Wh…    165    75 brown      light      blue            47   fema… femin… Tatooine  Human   <chr>
##  8 R5-D4        97    32 <NA>       white, red red             NA   none  mascu… Tatooine  Droid   <chr>
##  9 Biggs D…    183    84 black      light      brown           24   male  mascu… Tatooine  Human   <chr>
## 10 Obi-Wan…    182    77 auburn, w… fair       blue-gray       57   male  mascu… Stewjon   Human   <chr>
## # ℹ 77 more rows
## # ℹ 3 more variables: vehicles <list>, starships <list>, height_meters <dbl>
…
